<?xml version="1.0" encoding="UTF-8"?>
<CustomTab xmlns="http://soap.sforce.com/2006/04/metadata">
    <description>Used to add timesheets and expense lines to monthly invoices.</description>
    <label>Create Invoices</label>
    <mobileReady>false</mobileReady>
    <motif>Custom44: Hammer</motif>
    <page>AG_MultiTab_Invoice_c</page>
</CustomTab>
